advertiser: 1 rho: 0.0260808484504347
advertiser: 2 rho: 0.0520531783858185
advertiser: 3 rho: 0.0162788062649190
advertiser: 4 rho: 0.0065258216138015
advertiser: 5 rho: 0.0411891937347008
advertiser: 6 rho: 0.0099179156246952
advertiser: 7 rho: 0.0098432587873005
advertiser: 8 rho: 0.0100688641207414
advertiser: 9 rho: 0.0399697449079405
advertiser: 10 rho: 0.0567114044585935
advertiser: 11 rho: 0.0275609066282738
advertiser: 12 rho: 0.0290840150992091
advertiser: 13 rho: 0.0202646993590956
advertiser: 14 rho: 0.0094890475149899
advertiser: 15 rho: 0.0096672430319831
advertiser: 16 rho: 0.0338495190628333
advertiser: 17 rho: 0.0380243076123272
advertiser: 18 rho: 0.0207627749020061
advertiser: 19 rho: 0.0208902909600379
advertiser: 20 rho: 0.0169018720338212
advertiser: 21 rho: 0.0503351657269177
advertiser: 22 rho: 0.0080969999996200
advertiser: 23 rho: 0.0462038342719391
advertiser: 24 rho: 0.0168920631062803
advertiser: 25 rho: 0.0380940599859514
advertiser: 26 rho: 0.0224981892683308
advertiser: 27 rho: 0.0272072402963822
advertiser: 28 rho: 0.0202779999998096
advertiser: 29 rho: 0.0062028107312884
